Example data from Sulman et al. (2018) — sulman2018 • MEMC
…
Downloaded 31 May 2025 from https://doi.org/10.6084/m9.figshare.6981842.

    Note

    This dataset is a small extract from the Sulman (2018) data,
as it contains results from only three models (CORPSE, MEND, and
MIMICS) and four treatments (control, no litter, 30
addition, and 100
high-quality litter scenario.

    Examples

# Access the data
sulman2018
#> # A tibble: 48,042 × 7
#>    model  clay   litter      experiment month name                 value
#>    <chr>  <chr>  <chr>       <chr>      <dbl> <chr>                <dbl>
#>  1 CORPSE medium highquality control        0 total_protectedC   5.10   
#>  2 CORPSE medium highquality control        0 total_unprotectedC 0.378  
#>  3 CORPSE medium highquality control        0 total_C            5.50   
#>  4 CORPSE medium highquality control        0 total_microbeC     0.0234 
#>  5 CORPSE medium highquality control        0 total_litterC      0      
#>  6 CORPSE medium highquality control        0 CO2flux            0.00136
#>  7 CORPSE medium highquality control        1 total_protectedC   5.10   
#>  8 CORPSE medium highquality control        1 total_unprotectedC 0.378  
#>  9 CORPSE medium highquality control        1 total_C            5.50   
#> 10 CORPSE medium highquality control        1 total_microbeC     0.0233 
#> # ℹ 48,032 more rows
…
